<?xml version="1.0" encoding="UTF-8"?>
<svg height="25" viewBox="0 0 51 58" version="1.1" xmlns="http://www.w3.org/2000/svg" xmlns:xlink="http://www.w3.org/1999/xlink">
    <!-- Generator: Sketch 52.6 (67491) - http://www.bohemiancoding.com/sketch -->
    <title>Group</title>
    <desc>Created with Sketch.</desc>
    <g id="Page-1" stroke="none" stroke-width="1" fill="none" fill-rule="evenodd">
        <g id="Group" transform="translate(-1.000000, -1.000000)" fill="#FFFFFF" fill-rule="nonzero">
            <g id="Group-2">
                <path d="M16,24 L49,24 C50.6568542,24 52,25.3431458 52,27 L52,34 C52,35.6568542 50.6568542,37 49,37 L16,37 C14.3431458,37 13,35.6568542 13,34 L13,27 C13,25.3431458 14.3431458,24 16,24 Z" id="Rectangle"></path>
                <g id="Group-3">
                    <rect id="Rectangle" transform="translate(19.445436, 19.445436) rotate(-45.000000) translate(-19.445436, -19.445436) " x="-1.55456352" y="12.9454365" width="42" height="13" rx="3"></rect>
                    <rect id="Rectangle" transform="translate(20.000000, 40.500000) scale(1, -1) rotate(-45.000000) translate(-20.000000, -40.500000) " x="-1" y="34" width="42" height="13" rx="3"></rect>
                </g>
            </g>
        </g>
    </g>
</svg>