<?xml version="1.0" encoding="UTF-8"?>
<svg height="32px" viewBox="0 0 18 66" version="1.1" xmlns="http://www.w3.org/2000/svg" xmlns:xlink="http://www.w3.org/1999/xlink">
    <!-- Generator: Sketch 52.6 (67491) - http://www.bohemiancoding.com/sketch -->
    <title>Group</title>
    <desc>Created with Sketch.</desc>
    <g id="Page-1" stroke="none" stroke-width="1" fill="none" fill-rule="evenodd">
        <g id="Group" fill="#FFFFFF" fill-rule="nonzero">
            <rect id="Rectangle" x="0" y="0" width="18" height="18" rx="3"></rect>
            <rect id="Rectangle" x="0" y="24" width="18" height="18" rx="3"></rect>
            <rect id="Rectangle" x="0" y="48" width="18" height="18" rx="3"></rect>
        </g>
    </g>
</svg>